<?xml version="1.0" encoding="utf-8"?>
<!-- Generator: Adobe Illustrator 15.0.0, SVG Export Plug-In . SVG Version: 6.00 Build 0)  -->
<!DOCTYPE svg PUBLIC "-//W3C//DTD SVG 1.1//EN" "http://www.w3.org/Graphics/SVG/1.1/DTD/svg11.dtd">
<svg version="1.1" id="Calque_1" xmlns="http://www.w3.org/2000/svg" xmlns:xlink="http://www.w3.org/1999/xlink" x="0px" y="0px"
	 width="113.386px" height="85.04px" viewBox="0 0 113.386 85.04" enable-background="new 0 0 113.386 85.04" xml:space="preserve">
<g>
	<path d="M105.367,79.12h-1.815V31.067c0-0.435-0.291-0.816-0.711-0.93L60.786,18.66c-0.42-0.114-0.711-0.496-0.711-0.931V8.628
		c0-4.341-10.012-7.86-22.363-7.86s-22.364,3.519-22.364,7.86V79.12h-1.815c-0.532,0-0.964,0.433-0.964,0.965v3.221
		c0,0.534,0.432,0.966,0.964,0.966h91.835c0.532,0,0.964-0.432,0.964-0.966v-3.221C106.331,79.552,105.899,79.12,105.367,79.12
		L105.367,79.12z M22.996,67.981c0,0.433-0.289,0.811-0.705,0.93c-1.344,0.381-2.571,0.813-3.66,1.284
		c-0.639,0.275-1.353-0.187-1.353-0.884v-4.249c0-0.372,0.215-0.709,0.55-0.87c1.137-0.551,2.456-1.052,3.923-1.494
		c0.62-0.187,1.244,0.277,1.244,0.924V67.981z M22.996,57.671c0,0.433-0.289,0.811-0.705,0.929c-1.344,0.382-2.571,0.813-3.66,1.283
		c-0.639,0.277-1.353-0.186-1.353-0.882v-4.249c0-0.372,0.215-0.709,0.55-0.872c1.137-0.549,2.456-1.051,3.923-1.492
		c0.62-0.187,1.244,0.276,1.244,0.924V57.671z M22.996,47.362c0,0.433-0.289,0.811-0.705,0.929c-1.344,0.382-2.571,0.812-3.66,1.283
		c-0.639,0.277-1.353-0.187-1.353-0.882v-4.249c0-0.372,0.215-0.709,0.55-0.872c1.137-0.551,2.456-1.052,3.923-1.492
		c0.62-0.188,1.244,0.276,1.244,0.924V47.362z M22.996,37.052c0,0.433-0.289,0.81-0.705,0.928c-1.344,0.382-2.571,0.812-3.66,1.283
		c-0.639,0.276-1.353-0.187-1.353-0.883v-4.248c0-0.373,0.215-0.709,0.55-0.872c1.137-0.55,2.456-1.052,3.923-1.494
		c0.62-0.186,1.244,0.277,1.244,0.924V37.052z M22.996,26.741c0,0.434-0.289,0.811-0.705,0.929c-1.344,0.382-2.571,0.812-3.66,1.283
		c-0.639,0.277-1.353-0.186-1.353-0.883v-4.248c0-0.372,0.215-0.709,0.55-0.872c1.137-0.55,2.456-1.051,3.923-1.493
		c0.62-0.187,1.244,0.277,1.244,0.924V26.741z M22.996,16.431c0,0.433-0.289,0.812-0.705,0.929c-1.344,0.382-2.571,0.812-3.66,1.283
		c-0.639,0.277-1.353-0.186-1.353-0.883v-4.249c0-0.372,0.215-0.709,0.55-0.871c1.137-0.551,2.456-1.052,3.923-1.494
		c0.62-0.186,1.244,0.277,1.244,0.924V16.431z M36.493,66.066c0,0.521-0.415,0.948-0.937,0.963
		c-3.212,0.099-6.248,0.414-8.987,0.904c-0.592,0.107-1.136-0.346-1.136-0.947v-4.41c0-0.463,0.329-0.862,0.784-0.948
		c2.813-0.523,5.952-0.862,9.281-0.967c0.545-0.017,0.995,0.421,0.995,0.966V66.066z M36.493,55.755
		c0,0.522-0.415,0.947-0.937,0.964c-3.212,0.099-6.248,0.413-8.987,0.904c-0.592,0.106-1.136-0.346-1.136-0.949v-4.408
		c0-0.463,0.329-0.863,0.784-0.948c2.813-0.523,5.952-0.862,9.281-0.967c0.545-0.017,0.995,0.421,0.995,0.966V55.755z
		 M36.493,45.446c0,0.522-0.415,0.947-0.937,0.964c-3.212,0.099-6.248,0.413-8.987,0.904c-0.592,0.106-1.136-0.346-1.136-0.949
		v-4.409c0-0.462,0.329-0.862,0.784-0.948c2.813-0.525,5.952-0.862,9.281-0.967c0.545-0.017,0.995,0.421,0.995,0.964V45.446z
		 M36.493,35.136c0,0.521-0.415,0.948-0.937,0.964c-3.212,0.098-6.248,0.413-8.987,0.904c-0.592,0.106-1.136-0.348-1.136-0.949
		v-4.409c0-0.463,0.329-0.862,0.784-0.948c2.813-0.524,5.952-0.862,9.281-0.967c0.545-0.017,0.995,0.42,0.995,0.964V35.136z
		 M36.493,24.826c0,0.521-0.415,0.948-0.937,0.964c-3.212,0.098-6.248,0.413-8.987,0.904c-0.592,0.106-1.136-0.348-1.136-0.949
		v-4.409c0-0.463,0.329-0.863,0.784-0.948c2.813-0.524,5.952-0.863,9.281-0.967c0.545-0.017,0.995,0.421,0.995,0.965V24.826z
		 M36.493,14.516c0,0.522-0.415,0.948-0.937,0.964c-3.212,0.098-6.248,0.414-8.987,0.905c-0.592,0.105-1.136-0.348-1.136-0.949
		v-4.409c0-0.464,0.329-0.863,0.784-0.949c2.813-0.524,5.952-0.862,9.281-0.967c0.545-0.017,0.995,0.421,0.995,0.965V14.516z
		 M52.427,12.071c0-0.646,0.625-1.11,1.244-0.923c1.467,0.441,2.786,0.943,3.922,1.494c0.336,0.162,0.551,0.499,0.551,0.871v4.249
		c0,0.697-0.714,1.16-1.354,0.883c-1.088-0.471-2.315-0.901-3.659-1.283c-0.417-0.118-0.705-0.497-0.705-0.93V12.071z M49.99,66.986
		c0,0.602-0.544,1.055-1.137,0.949c-2.738-0.492-5.775-0.808-8.987-0.906c-0.521-0.015-0.936-0.441-0.936-0.963v-4.439
		c0-0.545,0.45-0.982,0.994-0.964c3.33,0.104,6.468,0.441,9.282,0.965c0.455,0.086,0.784,0.485,0.784,0.949V66.986z M49.99,56.674
		c0,0.604-0.544,1.056-1.137,0.949c-2.738-0.491-5.775-0.806-8.987-0.904c-0.521-0.017-0.936-0.441-0.936-0.964v-4.438
		c0-0.545,0.45-0.982,0.994-0.966c3.33,0.104,6.468,0.443,9.282,0.967c0.455,0.085,0.784,0.485,0.784,0.948V56.674z M49.99,46.365
		c0,0.604-0.544,1.056-1.137,0.949c-2.738-0.491-5.775-0.806-8.987-0.904c-0.521-0.017-0.936-0.441-0.936-0.964v-4.439
		c0-0.544,0.45-0.982,0.994-0.965c3.33,0.104,6.468,0.443,9.282,0.967c0.455,0.085,0.784,0.485,0.784,0.948V46.365z M49.99,36.055
		c0,0.602-0.544,1.055-1.137,0.949c-2.738-0.491-5.775-0.806-8.987-0.904c-0.521-0.017-0.936-0.443-0.936-0.964v-4.439
		c0-0.544,0.45-0.982,0.994-0.965c3.33,0.104,6.468,0.442,9.282,0.967c0.455,0.085,0.784,0.485,0.784,0.948V36.055z M49.99,25.745
		c0,0.602-0.544,1.055-1.137,0.949c-2.738-0.491-5.775-0.807-8.987-0.904c-0.521-0.017-0.936-0.443-0.936-0.964v-4.439
		c0-0.544,0.45-0.982,0.994-0.965c3.33,0.104,6.468,0.442,9.282,0.967c0.455,0.085,0.784,0.485,0.784,0.948V25.745z M49.99,15.436
		c0,0.602-0.544,1.055-1.137,0.949c-2.738-0.492-5.775-0.807-8.987-0.905c-0.521-0.016-0.936-0.442-0.936-0.964v-4.439
		c0-0.544,0.45-0.982,0.994-0.965c3.33,0.105,6.468,0.443,9.282,0.967c0.455,0.085,0.784,0.484,0.784,0.948V15.436z M52.427,26.741
		v-4.359c0-0.647,0.625-1.11,1.244-0.924c1.467,0.442,2.786,0.943,3.922,1.493c0.336,0.163,0.551,0.5,0.551,0.872v4.248
		c0,0.697-0.714,1.16-1.354,0.883c-1.088-0.471-2.315-0.901-3.659-1.283C52.715,27.552,52.427,27.175,52.427,26.741L52.427,26.741z
		 M83.675,79.12H68.82v-8.902c0-0.533,0.432-0.966,0.965-0.966H82.71c0.533,0,0.965,0.433,0.965,0.966V79.12z M98.921,62.192
		c0,0.533-0.433,0.964-0.965,0.964H56.624c-0.533,0-0.964-0.431-0.964-0.964V58.47c0-0.533,0.432-0.965,0.964-0.965h41.333
		c0.532,0,0.965,0.432,0.965,0.965V62.192z M98.921,52.642c0,0.532-0.433,0.964-0.965,0.964H56.624
		c-0.533,0-0.964-0.432-0.964-0.964v-3.723c0-0.532,0.432-0.964,0.964-0.964h41.333c0.532,0,0.965,0.432,0.965,0.964V52.642z
		 M98.921,43.092c0,0.532-0.433,0.965-0.965,0.965H56.624c-0.533,0-0.964-0.433-0.964-0.965v-3.721c0-0.533,0.432-0.965,0.964-0.965
		h41.333c0.532,0,0.965,0.433,0.965,0.965V43.092z M98.921,43.092"/>
</g>
</svg>
