<?xml version="1.0" encoding="utf-8"?>
<!-- Generator: Adobe Illustrator 15.0.0, SVG Export Plug-In . SVG Version: 6.00 Build 0)  -->
<!DOCTYPE svg PUBLIC "-//W3C//DTD SVG 1.1//EN" "http://www.w3.org/Graphics/SVG/1.1/DTD/svg11.dtd">
<svg version="1.1" id="Calque_1" xmlns="http://www.w3.org/2000/svg" xmlns:xlink="http://www.w3.org/1999/xlink" x="0px" y="0px"
	 width="113.386px" height="85.04px" viewBox="0 0 113.386 85.04" enable-background="new 0 0 113.386 85.04" xml:space="preserve">
<g>
	<g>
		<defs>
			<rect id="SVGID_1_" x="12.06" y="0.809" width="86" height="83.421"/>
		</defs>
		<clipPath id="SVGID_2_">
			<use xlink:href="#SVGID_1_"  overflow="visible"/>
		</clipPath>
		<path clip-path="url(#SVGID_2_)" d="M59.934,35.469c0.503,0,0.986,0.081,1.453,0.215l8.728-10.701
			c0.548-0.673,1.534-0.771,2.207-0.224c0.673,0.547,0.771,1.534,0.225,2.207l-8.603,10.548c0.583,0.807,0.933,1.803,0.933,2.879
			c0,2-1.201,3.732-2.915,4.502h35.1c0.493,0,0.896-0.403,0.896-0.896V12.918c0-0.493-0.403-0.897-0.896-0.897H51.494
			c-0.493,0-0.897,0.404-0.897,0.897v19.985l2.027,2.566H59.934z M59.934,35.469"/>
		<path clip-path="url(#SVGID_2_)" d="M20.691,46.404c0.619,0.807,1.552,1.229,2.493,1.229h0.108l-5.374,15.249
			c-0.305,0.879,0.341,1.794,1.265,1.794h6.153v15.339c0,2.332,1.893,4.216,4.216,4.216c2.323,0,4.216-1.893,4.216-4.216V64.675
			h2.036v15.339c0,2.332,1.893,4.216,4.216,4.216c2.323,0,4.216-1.893,4.216-4.216V64.675h6.153c0.924,0,1.579-0.915,1.265-1.794
			l-7.427-21.079v-3.894l3.516,4.44c0.592,0.753,1.498,1.193,2.458,1.193h9.706c1.73,0,3.139-1.409,3.139-3.14
			c0-0.512-0.125-0.987-0.341-1.417c-0.484-0.959-1.443-1.632-2.564-1.713c-0.081-0.009-0.153-0.009-0.233-0.009h-8.181
			l-1.157-1.462c0,0-5.902-7.113-7.643-9.643c-1.83-2.673-4.683-4.665-8.154-4.665c-3.499,0-6.808,2.359-9.84,3.947
			c-3.732,1.956-7.463,3.92-11.195,5.875c-0.816,0.431-1.409,1.203-1.605,2.1c-0.198,0.906,0.009,1.848,0.574,2.583L20.691,46.404z
			 M26.135,32.195v9.607l-5.364-6.799L26.135,32.195z M26.135,32.195"/>
	</g>
	<path d="M45.861,17.942c-0.781-0.422-2.494-1.633-2.494-4.126c0-3.229,0.807-13.006-8.566-13.006s-8.566,9.777-8.566,13.006
		c0,2.494-1.713,3.705-2.494,4.126c-0.233,0.125-0.341,0.395-0.26,0.637c0.52,1.668,1.83,2.18,3.238,2.18
		c2.162,0,4.539-1.203,4.539-1.203c-1.121-0.655-1.695-1.955-1.973-3.265c1.175,1.947,3.211,3.229,5.517,3.229
		c2.305,0,4.341-1.283,5.517-3.229c-0.278,1.319-0.853,2.61-1.974,3.265c0,0,2.377,1.203,4.539,1.203
		c1.399,0,2.718-0.502,3.238-2.18C46.201,18.336,46.093,18.067,45.861,17.942L45.861,17.942z M45.861,17.942"/>
</g>
</svg>
